%YAML 1.1
%TAG !u! tag:unity3d.com,2011:
--- !u!114 &11400000
MonoBehaviour:
  m_ObjectHideFlags: 0
  m_CorrespondingSourceObject: {fileID: 0}
  m_PrefabInstance: {fileID: 0}
  m_PrefabAsset: {fileID: 0}
  m_GameObject: {fileID: 0}
  m_Enabled: 1
  m_EditorHideFlags: 0
  m_Script: {fileID: 11500000, guid: 6d9eaf8050c8400886b2d63e23ce6613, type: 3}
  m_Name: Robert
  m_EditorClassIdentifier: 
  <Color>k__BackingField: {r: 0.28235298, g: 0.40260223, b: 0.91764706, a: 1}
